<svg width="8" height="5" viewBox="0 0 8 5" fill="none" xmlns="http://www.w3.org/2000/svg">
<path d="M0.796784 0.732239C0.890547 0.638504 1.0177 0.585846 1.15028 0.585846C1.28286 0.585846 1.41002 0.638504 1.50378 0.732239L3.97878 3.20724L6.45377 0.732239C6.54807 0.64116 6.67438 0.590763 6.80547 0.591902C6.93657 0.593041 7.06198 0.645626 7.15468 0.73833C7.24739 0.831034 7.29997 0.95644 7.30111 1.08754C7.30225 1.21864 7.25185 1.34494 7.16077 1.43924L4.33228 4.26774C4.23851 4.36147 4.11136 4.41413 3.97878 4.41413C3.8462 4.41413 3.71904 4.36147 3.62528 4.26774L0.796784 1.43924C0.703048 1.34548 0.650391 1.21832 0.650391 1.08574C0.650391 0.953157 0.703048 0.826003 0.796784 0.732239Z" fill="black"/>
</svg>
