<svg width="15" height="15" viewBox="0 0 15 15" fill="none" xmlns="http://www.w3.org/2000/svg">
<path d="M1.78652 1.79811L9.64276 0.676232C9.68714 0.66987 9.73232 0.67312 9.77526 0.685751C9.81826 0.698382 9.85801 0.720101 9.89182 0.749438C9.9257 0.778782 9.95282 0.815051 9.97145 0.855801C9.99001 0.896545 9.99964 0.940814 9.99964 0.985607V14.0144C9.99964 14.0591 9.99001 14.1033 9.97145 14.144C9.95289 14.1847 9.92582 14.221 9.89207 14.2503C9.85826 14.2796 9.81857 14.3013 9.7757 14.314C9.73282 14.3267 9.6877 14.33 9.64339 14.3238L1.7859 13.2019C1.63691 13.1806 1.50059 13.1064 1.40195 12.9927C1.30333 12.8791 1.24903 12.7336 1.24902 12.5831V2.41686C1.24903 2.26636 1.30333 2.12093 1.40195 2.00726C1.50059 1.8936 1.63691 1.81933 1.7859 1.79811H1.78652ZM2.49965 2.95936V12.0406L8.74964 12.9338V2.06623L2.49965 2.95936ZM10.6246 11.875H12.4996V3.12498H10.6246V1.87498H13.1246C13.2904 1.87498 13.4494 1.94083 13.5666 2.05804C13.6838 2.17525 13.7496 2.33422 13.7496 2.49998V12.5C13.7496 12.6658 13.6838 12.8247 13.5666 12.942C13.4494 13.0591 13.2904 13.125 13.1246 13.125H10.6246V11.875ZM6.37464 7.50001L8.12464 10H6.62464L5.62465 8.57126L4.62465 10H3.12465L4.87465 7.50001L3.12465 4.99999H4.62465L5.62465 6.42876L6.62464 4.99999H8.12464L6.37464 7.50001Z" fill="#2AAF5F"/>
</svg>
